{
  "code": 200,
  "msg": {
    "id": "Sukses",
    "en": "Success"
  },
  "data": [
    {
      "id": 53498,
      "client_id": 2,
      "client_name": "Amura",
      "reference_no": "4260225053498",
      "reference_no_fulfillment": "",
      "order_id": 0,
      "admin_id": 54,
      "warehouse_id": 6,
      "integration_courier_id": 2,
      "integration_courier_code": "lincah",
      "customer_service": "Putri Fauziah & Melisa",
      "customer_service_id": 54,
      "ads_platform_id": 16,
      "ads_platform_name": "REPEAT",
      "amount": 80000,
      "discount_amount": 0,
      "shipping_fee": 6000,
      "cod_fee": 3096,
      "discount_shipping_fee": 100,
      "other_amount": 4000,
      "customer_id": 870659,
      "customer_name": "Mamah Aldi",
      "customer_phone": "62895360966018",
      "customer_email": "",
      "customer_address": "Jl Tanah Seratus GG Hj Naim 2 RT/RW 006/01 No.11 kel Sudimara Jaya kec Ciledug Kota Tangerang Banten 15151\t",
      "customer_location_id": "36.71.06",
      "customer_postcode": "",
      "customer_province": "Banten",
      "customer_city": "Kota Tangerang",
      "customer_district": "Ciledug",
      "customer_sub_district": "",
      "customer_type": "repeat",
      "payment_status": "cod",
      "payment_method": "COD",
      "payment_number": "",
      "qty": 1,
      "product_summary": "1 AM-NC-10",
      "note": "1 ANC (NO LV)",
      "courier": "JNE Express",
      "courier_id": 0,
      "courier_label": "REG",
      "courier_logo": "",
      "courier_code": "jne#REG",
      "is_cod": true,
      "awb": "",
      "status": "pending",
      "status_fulfillment": "",
      "status_external": "",
      "evidences": null,
      "order_at": "2026-02-25T22:39:04+07:00",
      "created_at": "2026-02-25T22:39:04+07:00",
      "leads_at": "2026-02-25T22:39:04+07:00"
    },
    {
      "id": 53497,
      "client_id": 2,
      "client_name": "Amura",
      "reference_no": "4260225053497",
      "reference_no_fulfillment": "",
      "order_id": 0,
      "admin_id": 54,
      "warehouse_id": 6,
      "integration_courier_id": 2,
      "integration_courier_code": "lincah",
      "customer_service": "Putri Fauziah & Melisa",
      "customer_service_id": 54,
      "ads_platform_id": 16,
      "ads_platform_name": "REPEAT",
      "amount": 280000,
      "discount_amount": 0,
      "shipping_fee": 6000,
      "cod_fee": 0,
      "discount_shipping_fee": 0,
      "other_amount": 4000,
      "customer_id": 895725,
      "customer_name": "Rina Ruchyati",
      "customer_phone": "6287888411963",
      "customer_email": "",
      "customer_address": "Taman Narogong Indah Jl Narogong Sakti Raya A Blok A 20 No 6 (Dira Fantri) \t\nkel pengasinan  kec rawalumbu \tKota Bekasi\tJawa Barat\t17115",
      "customer_location_id": "32.75.05",
      "customer_postcode": "",
      "customer_province": "Jawa Barat",
      "customer_city": "Kota Bekasi",
      "customer_district": "Rawalumbu",
      "customer_sub_district": "",
      "customer_type": "repeat",
      "payment_status": "paid",
      "payment_method": "MANDIRI SAS",
      "payment_number": "",
      "qty": 5,
      "product_summary": "1 AM-SCR,1 AM-DC-10,1 AM-NC-10,1 AM-DSP-10,1 AM-EGC-100",
      "note": "1 ADC, 1 ANC, 1 AMDSP, 1 ESSEGEL (LV 1) 1 SCR",
      "courier": "JNE Express",
      "courier_id": 0,
      "courier_label": "REG",
      "courier_logo": "",
      "courier_code": "jne#REG",
      "is_cod": false,
      "awb": "",
      "status": "pending",
      "status_fulfillment": "",
      "status_external": "",
      "evidences": null,
      "order_at": "2026-02-25T22:36:27+07:00",
      "created_at": "2026-02-25T22:36:27+07:00",
      "leads_at": "2026-02-25T22:36:27+07:00"
    },
    {
      "id": 53496,
      "client_id": 2,
      "client_name": "Amura",
      "reference_no": "4260225053496",
      "reference_no_fulfillment": "",
      "order_id": 0,
      "admin_id": 54,
      "warehouse_id": 6,
      "integration_courier_id": 2,
      "integration_courier_code": "lincah",
      "customer_service": "Putri Fauziah & Melisa",
      "customer_service_id": 54,
      "ads_platform_id": 16,
      "ads_platform_name": "REPEAT",
      "amount": 156000,
      "discount_amount": 0,
      "shipping_fee": 15000,
      "cod_fee": 0,
      "discount_shipping_fee": 0,
      "other_amount": 0,
      "customer_id": 1038544,
      "customer_name": "Septi",
      "customer_phone": "628562700222",
      "customer_email": "",
      "customer_address": "SMPN 5 Tegal Jln Gatot Subroto no 1 kelurahan Debong Kulon Kecamatan Tegal Selatan Kota Tegal Jawa Tengah\t\t",
      "customer_location_id": "33.76.03",
      "customer_postcode": "",
      "customer_province": "Jawa Tengah",
      "customer_city": "Kota Tegal",
      "customer_district": "Tegal Selatan",
      "customer_sub_district": "",
      "customer_type": "repeat",
      "payment_status": "paid",
      "payment_method": "MANDIRI SAS",
      "payment_number": "",
      "qty": 2,
      "product_summary": "2 AM-DSP-10",
      "note": "2 amdsp (lv 2)",
      "courier": "JNT Express",
      "courier_id": 0,
      "courier_label": "EZ",
      "courier_logo": "",
      "courier_code": "jnt#EZ",
      "is_cod": false,
      "awb": "",
      "status": "pending",
      "status_fulfillment": "",
      "status_external": "",
      "evidences": null,
      "order_at": "2026-02-25T22:32:11+07:00",
      "created_at": "2026-02-25T22:32:12+07:00",
      "leads_at": "2026-02-25T22:32:11+07:00"
    }
  ],
  "metadata": {
    "page": 1,
    "length": 3,
    "count": 53458,
    "total_page": 17820
  }
}